
<svg version="1.1" xmlns="http://www.w3.org/2000/svg" xmlns:xlink="http://www.w3.org/1999/xlink" x="0px" y="0px" viewBox="0 0 16 16" xml:space="preserve" width="16" height="16">

<title>small triangle right</title>

<g class="nc-icon-wrapper" stroke-width="1" fill="#0c96c4" stroke="#0c96c4">

<polygon fill="none" stroke="#0c96c4" stroke-linecap="round" stroke-linejoin="round" stroke-miterlimit="10" points="5.5,3.5 10.5,8 5.5,12.5 "></polygon></g></svg>